cpu_tb.vcd
$date
	Sun Mar 13 19:01:06 2022
$end
$version
	Icarus Verilog
$end
$timescale
	10ps
$end
$scope module cpu_tb $end
$var wire 1 ! pc_out $end
$var reg 8 " bus [7:0] $end
$var reg 1 # clk $end
$var reg 1 $ debug $end
$var reg 4 % flags [3:0] $end
$var reg 4 & opcode [3:0] $end
$var reg 4 ' pr_address [3:0] $end
$var reg 8 ( pr_data [7:0] $end
$var reg 1 ) pr_mode $end
$var reg 1 * rst $end
$var integer 32 + _cnt [31:0] $end
$scope module cpu_ $end
$var wire 8 , bus [7:0] $end
$var wire 8 - bus_out [7:0] $end
$var wire 1 # clk $end
$var wire 1 . debug $end
$var wire 4 / flags [3:0] $end
$var wire 4 0 opcode [3:0] $end
$var wire 4 1 pr_address [3:0] $end
$var wire 8 2 pr_data [7:0] $end
$var wire 1 ) pr_mode $end
$var wire 1 3 rst $end
$var wire 8 4 unbuffered_out [7:0] $end
$var wire 4 5 step_out [3:0] $end
$var wire 1 6 reg_out_in $end
$var wire 4 7 reg_flags_in [3:0] $end
$var wire 1 8 reg_b_out $end
$var wire 1 9 reg_b_in $end
$var wire 1 : reg_a_out $end
$var wire 1 ; reg_a_in $end
$var wire 1 < ram_out $end
$var wire 1 = ram_in $end
$var wire 1 > pc_out $end
$var wire 1 ? pc_jmp $end
$var wire 1 @ pc_inc $end
$var wire 1 A mar_in $end
$var wire 4 B mar_address [3:0] $end
$var wire 1 C instr_out $end
$var wire 1 D instr_in $end
$var wire 1 E halt $end
$var wire 1 F alu_sub $end
$var wire 1 G alu_out $end
$scope module c $end
$var wire 1 # clk $end
$var wire 1 . debug $end
$var wire 4 H flags [3:0] $end
$var wire 4 I opcode [3:0] $end
$var wire 1 3 rst $end
$var wire 4 J step_out [3:0] $end
$var wire 1 6 reg_out_in $end
$var wire 4 K reg_flags_in [3:0] $end
$var wire 1 8 reg_b_out $end
$var wire 1 9 reg_b_in $end
$var wire 1 : reg_a_out $end
$var wire 1 ; reg_a_in $end
$var wire 1 < ram_out $end
$var wire 1 = ram_in $end
$var wire 1 > pc_out $end
$var wire 1 ? pc_jmp $end
$var wire 1 @ pc_inc $end
$var wire 1 A mar_in $end
$var wire 1 C instr_out $end
$var wire 1 D instr_in $end
$var wire 1 E halt $end
$var wire 1 F alu_sub $end
$var wire 1 G alu_out $end
$var reg 18 L control_bits [17:0] $end
$var reg 4 M step [3:0] $end
$var integer 32 N ADD [31:0] $end
$var integer 32 O CARRY [31:0] $end
$var integer 32 P HLT [31:0] $end
$var integer 32 Q JC [31:0] $end
$var integer 32 R JMP [31:0] $end
$var integer 32 S JZ [31:0] $end
$var integer 32 T LDA [31:0] $end
$var integer 32 U LDB [31:0] $end
$var integer 32 V LDI [31:0] $end
$var integer 32 W NOP [31:0] $end
$var integer 32 X OUT [31:0] $end
$var integer 32 Y PARITY [31:0] $end
$var integer 32 Z SIGN [31:0] $end
$var integer 32 [ STA [31:0] $end
$var integer 32 \ SUB [31:0] $end
$var integer 32 ] ZERO [31:0] $end
$upscope $end
$scope module mar_ $end
$var wire 4 ^ address_in [3:0] $end
$var wire 4 _ address_out [3:0] $end
$var wire 1 . debug $end
$var wire 1 A enable_in $end
$var wire 1 3 rst $end
$var reg 4 ` _address [3:0] $end
$upscope $end
$scope module reg_a $end
$var wire 8 a bus [7:0] $end
$var wire 8 b bus_out [7:0] $end
$var wire 1 ; data_load $end
$var wire 1 : data_send $end
$var wire 1 . debug $end
$var wire 1 3 rst $end
$var wire 8 c unbuffered_out [7:0] $end
$var reg 8 d data [7:0] $end
$upscope $end
$scope module reg_b $end
$var wire 8 e bus [7:0] $end
$var wire 8 f bus_out [7:0] $end
$var wire 1 9 data_load $end
$var wire 1 8 data_send $end
$var wire 1 . debug $end
$var wire 1 3 rst $end
$var wire 8 g unbuffered_out [7:0] $end
$var reg 8 h data [7:0] $end
$upscope $end
$scope module reg_out $end
$var wire 8 i bus [7:0] $end
$var wire 8 j bus_out [7:0] $end
$var wire 1 6 data_load $end
$var wire 1 8 data_send $end
$var wire 1 . debug $end
$var wire 1 3 rst $end
$var wire 8 k unbuffered_out [7:0] $end
$var reg 8 l data [7:0] $end
$upscope $end
$upscope $end
$scope begin $ivl_for_loop0 $end
$var integer 32 m i [31:0] $end
$upscope $end
$upscope $end
$enddefinitions $end
#0
$dumpvars
b0 m
bx l
bx k
bz j
bz i
bx h
bx g
bz f
bz e
bx d
bx c
bz b
bz a
b0 `
b0 _
bz ^
b1 ]
b100 \
b101 [
b10 Z
b11 Y
b1010 X
b0 W
b110 V
b10 U
b1 T
b1001 S
b111 R
b1000 Q
b1011 P
b0 O
b11 N
b0 M
b0 L
b0 K
b0 J
bz I
bz H
0G
0F
0E
0D
0C
b0 B
0A
0@
0?
0>
0=
0<
0;
0:
09
08
b0 7
06
b0 5
bx 4
03
bx 2
bx 1
bz 0
bz /
1.
bz -
bz ,
b0 +
0*
x)
bx (
bx '
b0 &
b11 %
1$
0#
b0 "
z!
$end
#200
bz B
bz _
bz `
1A
1>
b1 5
b1 J
b1 M
b10000100 L
1#
#400
0#
#600
1D
0A
1<
1@
0>
b10 5
b10 J
b10 M
b1000101000 L
1#
#800
0#
#1000
1#
#1200
0#
#1400
1#
#1600
0#
#1800
1#
#2000
0#
#2200
1#
#2400
0#
#2600
1#
#2800
0#
#3000
1#
#3200
0#
#3400
1#
#3600
0#
#3800
1#
#4000
0#
#4200
1#
#4400
0#
#4600
1#
#4800
0#
#5000
1#
#5200
0#
#5400
1#
#5600
0#
#5800
1#
#6000
0#
#6200
1#
#6400
0#
#6600
1#
#6800
0#
#7000
1#
#7200
0#
#7400
1#
#7600
0#
#7800
1#
#8000
0#
#8200
1#
#8400
0#
#8600
1#
#8800
0#
#9000
1#
#9200
0#
#9400
1#
#9600
0#
#9800
1#
#10000
0#
#10200
1#
#10400
0#
#10600
1#
#10800
0#
#11000
1#
#11200
0#
#11400
1#
#11600
0#
#11800
1#
#12000
0#
#12200
1#
#12400
0#
#12600
1#
#12800
0#
#13000
1#
#13200
0#
#13400
1#
#13600
0#
#13800
1#
#14000
0#
b1 m
#14200
1#
#14400
0#
#14600
1#
#14800
0#
#15000
1#
#15200
0#
#15400
1#
#15600
0#
#15800
1#
#16000
0#
b1010 "
#16200
1#
#16400
0#
#16600
1#
#16800
0#
#17000
1#
#17200
0#
#17400
1#
#17600
0#
#17800
1#
#18000
0#
#18200
1#
#18400
0#
#18600
1#
#18800
0#
#19000
1#
#19200
0#
#19400
1#
#19600
0#
#19800
1#
#20000
0#
#20200
1#
#20400
0#
#20600
1#
#20800
0#
#21000
1#
#21200
0#
#21400
1#
#21600
0#
#21800
1#
#22000
0#
#22200
1#
#22400
0#
#22600
1#
#22800
0#
#23000
1#
#23200
0#
#23400
1#
#23600
0#
#23800
1#
#24000
0#
#24200
1#
#24400
0#
#24600
1#
#24800
0#
#25000
1#
#25200
0#
#25400
1#
#25600
0#
#25800
1#
#26000
0#
#26200
1#
#26400
0#
#26600
1#
#26800
0#
#27000
1#
#27200
0#
#27400
1#
#27600
0#
#27800
1#
#28000
0#
b10 m
#28200
1#
#28400
0#
#28600
1#
#28800
0#
#29000
1#
#29200
0#
#29400
1#
#29600
0#
#29800
1#
#30000
0#
b10100 "
#30200
1#
#30400
0#
#30600
1#
#30800
0#
#31000
1#
#31200
0#
#31400
1#
#31600
0#
#31800
1#
#32000
0#
#32200
1#
#32400
0#
#32600
1#
#32800
0#
#33000
1#
#33200
0#
#33400
1#
#33600
0#
#33800
1#
#34000
0#
#34200
1#
#34400
0#
#34600
1#
#34800
0#
#35000
1#
#35200
0#
#35400
1#
#35600
0#
#35800
1#
#36000
0#
#36200
1#
#36400
0#
#36600
1#
#36800
0#
#37000
1#
#37200
0#
#37400
1#
#37600
0#
#37800
1#
#38000
0#
#38200
1#
#38400
0#
#38600
1#
#38800
0#
#39000
1#
#39200
0#
#39400
1#
#39600
0#
#39800
1#
#40000
0#
#40200
1#
#40400
0#
#40600
1#
#40800
0#
#41000
1#
#41200
0#
#41400
1#
#41600
0#
#41800
1#
#42000
0#
b11 m
#42200
1#
#42400
0#
#42600
1#
#42800
0#
#43000
1#
#43200
0#
#43400
1#
#43600
0#
#43800
1#
#44000
0#
b11110 "
