pc/program_counter_tb.vcd
$date
	Mon Mar 14 22:43:50 2022
$end
$version
	Icarus Verilog
$end
$timescale
	1s
$end
$scope module program_counter_tb $end
$var reg 1 ! clk $end
$var reg 1 " debug $end
$var reg 1 # inc $end
$var reg 1 $ out_en $end
$var reg 1 % rst $end
$scope module pc $end
$var wire 8 & cnt [7:0] $end
$var wire 1 " debug $end
$var wire 1 # inc $end
$var wire 1 $ out_en $end
$var wire 1 % rst $end
$var reg 4 ' _cnt [3:0] $end
$var reg 8 ( _cnt_buffer [7:0] $end
$upscope $end
$scope begin $ivl_for_loop0 $end
$var integer 32 ) i [31:0] $end
$upscope $end
$upscope $end
$enddefinitions $end
#0
$dumpvars
b0 )
b0 (
b1 '
b0 &
0%
1$
1#
1"
0!
$end
#2
1!
#4
0!
#6
1!
#8
0!
#10
1!
#12
0!
#14
1!
#16
0!
#18
1!
#20
bz &
bz (
0!
0#
b1 )
0$
#22
1!
#24
0!
#26
1!
#28
0!
#30
1!
#32
0!
#34
1!
#36
0!
#38
1!
#40
b0 '
b1 &
b1 (
0!
1#
b10 )
1%
1$
#42
1!
#44
0!
#46
1!
#48
0!
#50
1!
#52
0!
#54
1!
#56
0!
#58
1!
#60
bz &
bz (
0!
0#
b11 )
0$
#62
1!
#64
0!
#66
1!
#68
0!
#70
1!
#72
0!
#74
1!
#76
0!
#78
1!
#80
b1 '
b0 &
b0 (
0!
1#
b100 )
1$
#82
1!
#84
0!
#86
1!
#88
0!
#90
1!
#92
0!
#94
1!
#96
0!
#98
1!
#100
bz &
bz (
0!
0#
b101 )
0$
#102
1!
#104
0!
#106
1!
#108
0!
#110
1!
#112
0!
#114
1!
#116
0!
#118
1!
#120
b10 '
b1 &
b1 (
0!
1#
b110 )
1$
#122
1!
#124
0!
#126
1!
#128
0!
#130
1!
#132
0!
#134
1!
#136
0!
#138
1!
#140
bz &
bz (
0!
0#
b111 )
0$
#142
1!
#144
0!
#146
1!
#148
0!
#150
1!
#152
0!
#154
1!
#156
0!
#158
1!
#160
b11 '
b10 &
b10 (
0!
1#
b1000 )
1$
#162
1!
#164
0!
#166
1!
#168
0!
#170
1!
#172
0!
#174
1!
#176
0!
#178
1!
#180
bz &
bz (
0!
0#
b1001 )
0$
#182
1!
#184
0!
#186
1!
#188
0!
#190
1!
#192
0!
#194
1!
#196
0!
#198
1!
#200
b100 '
b11 &
b11 (
0!
1#
b1010 )
1$
#202
1!
#204
0!
#206
1!
#208
0!
#210
1!
#212
0!
#214
1!
#216
0!
#218
1!
#220
bz &
bz (
0!
0#
b1011 )
0%
0$
#222
1!
#224
0!
#226
1!
#228
0!
#230
1!
#232
0!
#234
1!
#236
0!
#238
1!
#240
b0 '
b100 &
b100 (
0!
1#
b1100 )
1%
1$
#242
1!
#244
0!
#246
1!
#248
0!
#250
1!
#252
0!
#254
1!
#256
0!
#258
1!
#260
bz &
bz (
0!
0#
b1101 )
0$
#262
1!
#264
0!
#266
1!
#268
0!
#270
1!
#272
0!
#274
1!
#276
0!
#278
1!
#280
b1 '
b0 &
b0 (
0!
1#
b1110 )
1$
#282
1!
#284
0!
#286
1!
#288
0!
#290
1!
#292
0!
#294
1!
#296
0!
#298
1!
#300
bz &
bz (
0!
0#
b1111 )
0$
#302
1!
#304
0!
#306
1!
#308
0!
#310
1!
#312
0!
#314
1!
#316
0!
#318
1!
#320
b10 '
b1 &
b1 (
0!
1#
b10000 )
1$
#322
1!
#324
0!
#326
1!
#328
0!
#330
1!
#332
0!
#334
1!
#336
0!
#338
1!
#340
bz &
bz (
0!
0#
b10001 )
0$
#342
1!
#344
0!
#346
1!
#348
0!
#350
1!
#352
0!
#354
1!
#356
0!
#358
1!
#360
b11 '
b10 &
b10 (
0!
1#
b10010 )
1$
#362
1!
#364
0!
#366
1!
#368
0!
#370
1!
#372
0!
#374
1!
#376
0!
#378
1!
#380
bz &
bz (
0!
0#
b10011 )
0$
#382
1!
#384
0!
#386
1!
#388
0!
#390
1!
#392
0!
#394
1!
#396
0!
#398
1!
#400
b100 '
b11 &
b11 (
0!
1#
b10100 )
1$
#402
1!
#404
0!
#406
1!
#408
0!
#410
1!
#412
0!
#414
1!
#416
0!
#418
1!
#420
bz &
bz (
0!
0#
b10101 )
0%
0$
#422
1!
#424
0!
#426
1!
#428
0!
#430
1!
#432
0!
#434
1!
#436
0!
#438
1!
#440
b0 '
b100 &
b100 (
0!
1#
b10110 )
1%
1$
#442
1!
#444
0!
#446
1!
#448
0!
#450
1!
#452
0!
#454
1!
#456
0!
#458
1!
#460
bz &
bz (
0!
0#
b10111 )
0$
#462
1!
#464
0!
#466
1!
#468
0!
#470
1!
#472
0!
#474
1!
#476
0!
#478
1!
#480
b1 '
b0 &
b0 (
0!
1#
b11000 )
1$
#482
1!
#484
0!
#486
1!
#488
0!
#490
1!
#492
0!
#494
1!
#496
0!
#498
1!
#500
bz &
bz (
0!
0#
b11001 )
0$
#502
1!
#504
0!
#506
1!
#508
0!
#510
1!
#512
0!
#514
1!
#516
0!
#518
1!
#520
b10 '
b1 &
b1 (
0!
1#
b11010 )
1$
#522
1!
#524
0!
#526
1!
#528
0!
#530
1!
#532
0!
#534
1!
#536
0!
#538
1!
#540
bz &
bz (
0!
0#
b11011 )
0$
#542
1!
#544
0!
#546
1!
#548
0!
#550
1!
#552
0!
#554
1!
#556
0!
#558
1!
#560
b11 '
b10 &
b10 (
0!
1#
b11100 )
1$
#562
1!
#564
0!
#566
1!
#568
0!
#570
1!
#572
0!
#574
1!
#576
0!
#578
1!
#580
bz &
bz (
0!
0#
b11101 )
0$
#582
1!
#584
0!
#586
1!
#588
0!
#590
1!
#592
0!
#594
1!
#596
0!
#598
1!
#600
b100 '
b11 &
b11 (
0!
1#
b11110 )
1$
#602
1!
#604
0!
#606
1!
#608
0!
#610
1!
#612
0!
#614
1!
#616
0!
#618
1!
#620
bz &
bz (
0!
0#
b11111 )
0%
0$
#622
1!
#624
0!
#626
1!
#628
0!
#630
1!
#632
0!
#634
1!
#636
0!
#638
1!
#640
b0 '
b100 &
b100 (
0!
1#
b100000 )
1%
1$
#642
1!
#644
0!
#646
1!
#648
0!
#650
1!
#652
0!
#654
1!
#656
0!
#658
1!
#660
bz &
bz (
0!
0#
b100001 )
0$
#662
1!
#664
0!
#666
1!
#668
0!
#670
1!
#672
0!
#674
1!
#676
0!
#678
1!
#680
b1 '
b0 &
b0 (
0!
1#
b100010 )
1$
#682
1!
#684
0!
#686
1!
#688
0!
#690
1!
#692
0!
#694
1!
#696
0!
#698
1!
#700
bz &
bz (
0!
0#
b100011 )
0$
#702
1!
#704
0!
#706
1!
#708
0!
#710
1!
#712
0!
#714
1!
#716
0!
#718
1!
#720
b10 '
b1 &
b1 (
0!
1#
b100100 )
1$
#722
1!
#724
0!
#726
1!
#728
0!
#730
1!
#732
0!
#734
1!
#736
0!
#738
1!
#740
bz &
bz (
0!
0#
b100101 )
0$
#742
1!
#744
0!
#746
1!
#748
0!
#750
1!
#752
0!
#754
1!
#756
0!
#758
1!
#760
b11 '
b10 &
b10 (
0!
1#
b100110 )
1$
#762
1!
#764
0!
#766
1!
#768
0!
#770
1!
#772
0!
#774
1!
#776
0!
#778
1!
#780
bz &
bz (
0!
0#
b100111 )
0$
#782
1!
#784
0!
#786
1!
#788
0!
#790
1!
#792
0!
#794
1!
#796
0!
#798
1!
#800
b11 &
b11 (
0!
b101000 )
1$
